{
    "mysqlConnect":{
        "host "    : "localhost",
        "user"     : "root",
        "password" : "mysql",
        "database" : "reminder_app"
    },

    "query":{
        "groupMembers":"select u.id user_id,u.first_name,u.last_name,g.id group_id,g.name group_name from user u join group_members gm on (u.id=gm.user_id) join groups g on (gm.group_id=g.id) where g.id=?",
        "userGroups":"select u.id user_id,u.first_name,u.last_name,g.id group_id, g.name group_name from user u join group_members gm on (u.id=gm.user_id) join groups g on (gm.group_id=g.id) where u.id=?",
        "userTask":"select * from task where assigned_to=?",
        "userUnderAManager":"select u.id user_id,u.first_name,u.last_name,m.first_name manager_name from user u join user m on u.manager_id=m.id where u.manager_id=?"
    }

}